Logfile oogkleur onderzoek
…
Vanaf hier wordt een specifieke deelvraag behandeld, namelijk “Is er
een aantoonbaar verschil in oogkleur tussen de verschillende locaties
waarop gemeten is?”.

eye_colors_location <- eye_colors2 %>%
  mutate(location = case_when(
    row_number() <= 320 ~ "Hanze Hogeschool Groningen",
    row_number() <= 640 ~ "Groningen centrum",
    row_number() <= 960 ~ "Zwolle centrum",
    TRUE ~ NA_character_
  ))
eye_colors_location

## # A tibble: 960 × 8
##    Identifier geslacht leeftijd results Eye   Laborant color location           
##    <chr>      <chr>       <int> <chr>   <chr> <chr>    <chr> <chr>              
##  1 A001       M              20 blauw   L     9308     blauw Hanze Hogeschool G…
##  2 A001       M              20 blauw   R     9308     blauw Hanze Hogeschool G…
##  3 A001       M              20 blauw   L     2193     blauw Hanze Hogeschool G…
##  4 A001       M              20 blauw   R     2193     blauw Hanze Hogeschool G…
##  5 A001       M              20 blauw   L     5609     blauw Hanze Hogeschool G…
##  6 A001       M              20 blauw   R     5609     blauw Hanze Hogeschool G…
##  7 A001       M              20 blauw   L     8705     blauw Hanze Hogeschool G…
##  8 A001       M              20 blauw   R     8705     blauw Hanze Hogeschool G…
##  9 A002       F              19 hazel   L     9308     hazel Hanze Hogeschool G…
## 10 A002       F              19 hazel   R     9308     hazel Hanze Hogeschool G…
## # ℹ 950 more rows

Total_amount <- eye_colors_location %>%
  group_by(Identifier) %>%
  slice(1)
Total_amount

## # A tibble: 120 × 8
## # Groups:   Identifier [120]
##    Identifier geslacht leeftijd results Eye   Laborant color location           
##    <chr>      <chr>       <int> <chr>   <chr> <chr>    <chr> <chr>              
##  1 A001       M              20 blauw   L     9308     blauw Hanze Hogeschool G…
##  2 A002       F              19 hazel   L     9308     hazel Hanze Hogeschool G…
##  3 A003       F              22 bruin   L     9308     bruin Hanze Hogeschool G…
##  4 A004       M              20 blauw   L     9308     blauw Hanze Hogeschool G…
##  5 A005       M              17 bruin   L     9308     bruin Hanze Hogeschool G…
##  6 A006       M              20 blauw   L     9308     blauw Hanze Hogeschool G…
##  7 A007       M              25 hazel   L     9308     hazel Hanze Hogeschool G…
##  8 A008       M              18 blauw   L     9308     blauw Hanze Hogeschool G…
##  9 A009       M              18 blauw   L     9308     blauw Hanze Hogeschool G…
## 10 A010       F              23 blauw   L     9308     blauw Hanze Hogeschool G…
## # ℹ 110 more rows
…
04-06-2023 399308(Cheyenne) 12:00 - 14:00

library(gmodels)
eye_endresults <- Total_amount %>%
    rowwise() %>%
    relocate(results, .after = leeftijd) %>%
    relocate(location, .after = Identifier)
eye_endresults

## # A tibble: 120 × 8
## # Rowwise:  Identifier
##    Identifier location            geslacht leeftijd results Eye   Laborant color
##    <chr>      <chr>               <chr>       <int> <chr>   <chr> <chr>    <chr>
##  1 A001       Hanze Hogeschool G… M              20 blauw   L     9308     blauw
##  2 A002       Hanze Hogeschool G… F              19 hazel   L     9308     hazel
##  3 A003       Hanze Hogeschool G… F              22 bruin   L     9308     bruin
##  4 A004       Hanze Hogeschool G… M              20 blauw   L     9308     blauw
##  5 A005       Hanze Hogeschool G… M              17 bruin   L     9308     bruin
##  6 A006       Hanze Hogeschool G… M              20 blauw   L     9308     blauw
##  7 A007       Hanze Hogeschool G… M              25 hazel   L     9308     hazel
##  8 A008       Hanze Hogeschool G… M              18 blauw   L     9308     blauw
##  9 A009       Hanze Hogeschool G… M              18 blauw   L     9308     blauw
## 10 A010       Hanze Hogeschool G… F              23 blauw   L     9308     blauw
## # ℹ 110 more rows
…
